%!PS-Adobe-3.0
%%Creator: PCBNEW
%%CreationDate: Thu Feb  3 21:13:18 2022
%%Title: ()
%%Pages: 1
%%PageOrder: Ascend
%%BoundingBox: 0 0 596 842
%%DocumentMedia: A4 595 842 0 () ()
%%Orientation: Landscape
%%EndComments
%%BeginProlog
/line { newpath moveto lineto stroke } bind def
/cir0 { newpath 0 360 arc stroke } bind def
/cir1 { newpath 0 360 arc gsave fill grestore stroke } bind def
/cir2 { newpath 0 360 arc gsave fill grestore stroke } bind def
/arc0 { newpath arc stroke } bind def
/arc1 { newpath 4 index 4 index moveto arc closepath gsave fill
    grestore stroke } bind def
/arc2 { newpath 4 index 4 index moveto arc closepath gsave fill
    grestore stroke } bind def
/poly0 { stroke } bind def
/poly1 { closepath gsave fill grestore stroke } bind def
/poly2 { closepath gsave fill grestore stroke } bind def
/rect0 { rectstroke } bind def
/rect1 { rectfill } bind def
/rect2 { rectfill } bind def
/linemode0 { 0 setlinecap 0 setlinejoin 0 setlinewidth } bind def
/linemode1 { 1 setlinecap 1 setlinejoin } bind def
/dashedline { [200] 100 setdash } bind def
/solidline { [] 0 setdash } bind def
/phantomshow { moveto
    /KicadFont findfont 0.000001 scalefont setfont
    show } bind def
/textshow { gsave
    findfont exch scalefont setfont concat 1 scale 0 0 moveto show
    } bind def
/reencodefont {
  findfont dup length dict begin
  { 1 index /FID ne
    { def }
    { pop pop } ifelse
  } forall
  /Encoding ISOLatin1Encoding def
  currentdict
  end } bind def
/KicadFont /Helvetica reencodefont definefont pop
/KicadFont-Bold /Helvetica-Bold reencodefont definefont pop
/KicadFont-Oblique /Helvetica-Oblique reencodefont definefont pop
/KicadFont-BoldOblique /Helvetica-BoldOblique reencodefont definefont pop
%%EndProlog
%%Page: 1 1
%%BeginPageSetup
gsave
0.0072 0.0072 scale
linemode1
82680 0 translate 90 rotate
236.22 setlinewidth
%%EndPageSetup
0 0 0 setrgbcolor
118.11 setlinewidth
newpath
84865 35976 moveto
84865 79776 lineto
stroke
0 0 0 setrgbcolor
newpath
84865 79776 moveto
32065 79776 lineto
stroke
0 0 0 setrgbcolor
newpath
32065 79776 moveto
32065 35976 lineto
stroke
0 0 0 setrgbcolor
newpath
32065 35976 moveto
84865 35976 lineto
stroke
236.22 setlinewidth
118.11 setlinewidth
newpath
67312.6 64376.8 moveto
68493.7 63195.7 lineto
stroke
newpath
68493.7 64376.8 moveto
67312.6 63195.7 lineto
stroke
newpath
67312.6 53156.3 moveto
68493.7 51975.2 lineto
stroke
newpath
68493.7 53156.3 moveto
67312.6 51975.2 lineto
stroke
377.953 setlinewidth
43188.6 75234.1 1889.76 cir0
43188.6 61734.1 1889.76 cir0
43188.6 54234.1 1889.76 cir0
43188.6 40734.1 1889.76 cir0
236.22 setlinewidth
78.7406 setlinewidth
0 0 0 setrgbcolor
0 0 0 setrgbcolor
newpath
33020.2 34694.6 moveto
33020.2 35482 lineto
33207.7 35482 lineto
33320.2 35444.5 lineto
33395.1 35369.5 lineto
33432.6 35294.5 lineto
33470.1 35144.5 lineto
33470.1 35032.1 lineto
33432.6 34882.1 lineto
33395.1 34807.1 lineto
33320.2 34732.1 lineto
33207.7 34694.6 lineto
33020.2 34694.6 lineto
stroke
newpath
33807.6 34694.6 moveto
33807.6 35219.5 lineto
stroke
newpath
33807.6 35069.6 moveto
33845.1 35144.5 lineto
33882.6 35182 lineto
33957.6 35219.5 lineto
34032.6 35219.5 lineto
stroke
newpath
34295 34694.6 moveto
34295 35219.5 lineto
stroke
newpath
34295 35482 moveto
34257.5 35444.5 lineto
34295 35407 lineto
34332.5 35444.5 lineto
34295 35482 lineto
34295 35407 lineto
stroke
newpath
34782.5 34694.6 moveto
34707.5 34732.1 lineto
34670 34807.1 lineto
34670 35482 lineto
stroke
newpath
35194.9 34694.6 moveto
35119.9 34732.1 lineto
35082.4 34807.1 lineto
35082.4 35482 lineto
stroke
newpath
36094.8 34694.6 moveto
36094.8 35482 lineto
36357.3 34919.6 lineto
36619.7 35482 lineto
36619.7 34694.6 lineto
stroke
newpath
37332.2 34694.6 moveto
37332.2 35107 lineto
37294.7 35182 lineto
37219.7 35219.5 lineto
37069.7 35219.5 lineto
36994.7 35182 lineto
stroke
newpath
37332.2 34732.1 moveto
37257.2 34694.6 lineto
37069.7 34694.6 lineto
36994.7 34732.1 lineto
36957.2 34807.1 lineto
36957.2 34882.1 lineto
36994.7 34957.1 lineto
37069.7 34994.6 lineto
37257.2 34994.6 lineto
37332.2 35032.1 lineto
stroke
newpath
37707.1 35219.5 moveto
37707.1 34432.1 lineto
stroke
newpath
37707.1 35182 moveto
37782.1 35219.5 lineto
37932.1 35219.5 lineto
38007.1 35182 lineto
38044.6 35144.5 lineto
38082.1 35069.6 lineto
38082.1 34844.6 lineto
38044.6 34769.6 lineto
38007.1 34732.1 lineto
37932.1 34694.6 lineto
37782.1 34694.6 lineto
37707.1 34732.1 lineto
stroke
newpath
38419.5 34769.6 moveto
38457 34732.1 lineto
38419.5 34694.6 lineto
38382 34732.1 lineto
38419.5 34769.6 lineto
38419.5 34694.6 lineto
stroke
newpath
38419.5 35182 moveto
38457 35144.5 lineto
38419.5 35107 lineto
38382 35144.5 lineto
38419.5 35182 lineto
38419.5 35107 lineto
stroke
78.7394 setlinewidth
newpath
31218.5 33791 moveto
32005.9 33003.6 lineto
stroke
newpath
32005.9 33791 moveto
31218.5 33003.6 lineto
stroke
236.22 setlinewidth
78.7406 setlinewidth
0 0 0 setrgbcolor
0 0 0 setrgbcolor
newpath
33432.6 33041.1 moveto
32982.7 33041.1 lineto
stroke
newpath
33207.7 33041.1 moveto
33207.7 33828.5 lineto
33132.7 33716 lineto
33057.7 33641 lineto
32982.7 33603.5 lineto
stroke
newpath
33770.1 33116 moveto
33807.6 33078.5 lineto
33770.1 33041.1 lineto
33732.6 33078.5 lineto
33770.1 33116 lineto
33770.1 33041.1 lineto
stroke
newpath
34295 33828.5 moveto
34370 33828.5 lineto
34445 33791 lineto
34482.5 33753.5 lineto
34520 33678.5 lineto
34557.5 33528.5 lineto
34557.5 33341 lineto
34520 33191 lineto
34482.5 33116 lineto
34445 33078.5 lineto
34370 33041.1 lineto
34295 33041.1 lineto
34220 33078.5 lineto
34182.5 33116 lineto
34145.1 33191 lineto
34107.6 33341 lineto
34107.6 33528.5 lineto
34145.1 33678.5 lineto
34182.5 33753.5 lineto
34220 33791 lineto
34295 33828.5 lineto
stroke
newpath
35044.9 33828.5 moveto
35119.9 33828.5 lineto
35194.9 33791 lineto
35232.4 33753.5 lineto
35269.9 33678.5 lineto
35307.4 33528.5 lineto
35307.4 33341 lineto
35269.9 33191 lineto
35232.4 33116 lineto
35194.9 33078.5 lineto
35119.9 33041.1 lineto
35044.9 33041.1 lineto
34970 33078.5 lineto
34932.5 33116 lineto
34895 33191 lineto
34857.5 33341 lineto
34857.5 33528.5 lineto
34895 33678.5 lineto
34932.5 33753.5 lineto
34970 33791 lineto
35044.9 33828.5 lineto
stroke
newpath
35794.8 33828.5 moveto
35869.8 33828.5 lineto
35944.8 33791 lineto
35982.3 33753.5 lineto
36019.8 33678.5 lineto
36057.3 33528.5 lineto
36057.3 33341 lineto
36019.8 33191 lineto
35982.3 33116 lineto
35944.8 33078.5 lineto
35869.8 33041.1 lineto
35794.8 33041.1 lineto
35719.9 33078.5 lineto
35682.4 33116 lineto
35644.9 33191 lineto
35607.4 33341 lineto
35607.4 33528.5 lineto
35644.9 33678.5 lineto
35682.4 33753.5 lineto
35719.9 33791 lineto
35794.8 33828.5 lineto
stroke
newpath
36394.8 33041.1 moveto
36394.8 33566 lineto
stroke
newpath
36394.8 33491 moveto
36432.3 33528.5 lineto
36507.3 33566 lineto
36619.7 33566 lineto
36694.7 33528.5 lineto
36732.2 33453.5 lineto
36732.2 33041.1 lineto
stroke
newpath
36732.2 33453.5 moveto
36769.7 33528.5 lineto
36844.7 33566 lineto
36957.2 33566 lineto
37032.2 33528.5 lineto
37069.7 33453.5 lineto
37069.7 33041.1 lineto
stroke
newpath
37444.6 33041.1 moveto
37444.6 33566 lineto
stroke
newpath
37444.6 33491 moveto
37482.1 33528.5 lineto
37557.1 33566 lineto
37669.6 33566 lineto
37744.6 33528.5 lineto
37782.1 33453.5 lineto
37782.1 33041.1 lineto
stroke
newpath
37782.1 33453.5 moveto
37819.6 33528.5 lineto
37894.6 33566 lineto
38007.1 33566 lineto
38082.1 33528.5 lineto
38119.6 33453.5 lineto
38119.6 33041.1 lineto
stroke
newpath
39656.9 33865.9 moveto
38982 32853.6 lineto
stroke
newpath
40669.2 33828.5 moveto
40744.2 33828.5 lineto
40819.2 33791 lineto
40856.7 33753.5 lineto
40894.2 33678.5 lineto
40931.7 33528.5 lineto
40931.7 33341 lineto
40894.2 33191 lineto
40856.7 33116 lineto
40819.2 33078.5 lineto
40744.2 33041.1 lineto
40669.2 33041.1 lineto
40594.3 33078.5 lineto
40556.8 33116 lineto
40519.3 33191 lineto
40481.8 33341 lineto
40481.8 33528.5 lineto
40519.3 33678.5 lineto
40556.8 33753.5 lineto
40594.3 33791 lineto
40669.2 33828.5 lineto
stroke
newpath
41269.2 33116 moveto
41306.7 33078.5 lineto
41269.2 33041.1 lineto
41231.7 33078.5 lineto
41269.2 33116 lineto
41269.2 33041.1 lineto
stroke
newpath
41794.1 33828.5 moveto
41869.1 33828.5 lineto
41944.1 33791 lineto
41981.6 33753.5 lineto
42019.1 33678.5 lineto
42056.6 33528.5 lineto
42056.6 33341 lineto
42019.1 33191 lineto
41981.6 33116 lineto
41944.1 33078.5 lineto
41869.1 33041.1 lineto
41794.1 33041.1 lineto
41719.1 33078.5 lineto
41681.6 33116 lineto
41644.1 33191 lineto
41606.6 33341 lineto
41606.6 33528.5 lineto
41644.1 33678.5 lineto
41681.6 33753.5 lineto
41719.1 33791 lineto
41794.1 33828.5 lineto
stroke
newpath
42319 33828.5 moveto
42806.5 33828.5 lineto
42544 33528.5 lineto
42656.5 33528.5 lineto
42731.5 33491 lineto
42769 33453.5 lineto
42806.5 33378.5 lineto
42806.5 33191 lineto
42769 33116 lineto
42731.5 33078.5 lineto
42656.5 33041.1 lineto
42431.5 33041.1 lineto
42356.5 33078.5 lineto
42319 33116 lineto
stroke
newpath
43181.4 33041.1 moveto
43331.4 33041.1 lineto
43406.4 33078.5 lineto
43443.9 33116 lineto
43518.9 33228.5 lineto
43556.4 33378.5 lineto
43556.4 33678.5 lineto
43518.9 33753.5 lineto
43481.4 33791 lineto
43406.4 33828.5 lineto
43256.4 33828.5 lineto
43181.4 33791 lineto
43143.9 33753.5 lineto
43106.4 33678.5 lineto
43106.4 33491 lineto
43143.9 33416 lineto
43181.4 33378.5 lineto
43256.4 33341 lineto
43406.4 33341 lineto
43481.4 33378.5 lineto
43518.9 33416 lineto
43556.4 33491 lineto
stroke
newpath
44231.3 33566 moveto
44231.3 33041.1 lineto
stroke
newpath
44043.8 33865.9 moveto
43856.3 33303.5 lineto
44343.8 33303.5 lineto
stroke
newpath
44606.3 33828.5 moveto
44606.3 33678.5 lineto
stroke
newpath
44906.2 33828.5 moveto
44906.2 33678.5 lineto
stroke
newpath
46068.6 32741.1 moveto
46031.1 32778.6 lineto
45956.1 32891.1 lineto
45918.6 32966.1 lineto
45881.1 33078.5 lineto
45843.6 33266 lineto
45843.6 33416 lineto
45881.1 33603.5 lineto
45918.6 33716 lineto
45956.1 33791 lineto
46031.1 33903.4 lineto
46068.6 33940.9 lineto
stroke
newpath
46331 33753.5 moveto
46368.5 33791 lineto
46443.5 33828.5 lineto
46631 33828.5 lineto
46706 33791 lineto
46743.5 33753.5 lineto
46781 33678.5 lineto
46781 33603.5 lineto
46743.5 33491 lineto
46293.5 33041.1 lineto
46781 33041.1 lineto
stroke
newpath
47718.4 33041.1 moveto
47718.4 33828.5 lineto
stroke
newpath
48055.8 33041.1 moveto
48055.8 33453.5 lineto
48018.3 33528.5 lineto
47943.3 33566 lineto
47830.8 33566 lineto
47755.9 33528.5 lineto
47718.4 33491 lineto
stroke
newpath
48543.3 33041.1 moveto
48468.3 33078.5 lineto
48430.8 33116 lineto
48393.3 33191 lineto
48393.3 33416 lineto
48430.8 33491 lineto
48468.3 33528.5 lineto
48543.3 33566 lineto
48655.7 33566 lineto
48730.7 33528.5 lineto
48768.2 33491 lineto
48805.7 33416 lineto
48805.7 33191 lineto
48768.2 33116 lineto
48730.7 33078.5 lineto
48655.7 33041.1 lineto
48543.3 33041.1 lineto
stroke
newpath
49255.7 33041.1 moveto
49180.7 33078.5 lineto
49143.2 33153.5 lineto
49143.2 33828.5 lineto
stroke
newpath
49855.6 33078.5 moveto
49780.6 33041.1 lineto
49630.6 33041.1 lineto
49555.6 33078.5 lineto
49518.1 33153.5 lineto
49518.1 33453.5 lineto
49555.6 33528.5 lineto
49630.6 33566 lineto
49780.6 33566 lineto
49855.6 33528.5 lineto
49893.1 33453.5 lineto
49893.1 33378.5 lineto
49518.1 33303.5 lineto
stroke
newpath
50193.1 33078.5 moveto
50268 33041.1 lineto
50418 33041.1 lineto
50493 33078.5 lineto
50530.5 33153.5 lineto
50530.5 33191 lineto
50493 33266 lineto
50418 33303.5 lineto
50305.5 33303.5 lineto
50230.6 33341 lineto
50193.1 33416 lineto
50193.1 33453.5 lineto
50230.6 33528.5 lineto
50305.5 33566 lineto
50418 33566 lineto
50493 33528.5 lineto
stroke
newpath
50793 32741.1 moveto
50830.5 32778.6 lineto
50905.5 32891.1 lineto
50943 32966.1 lineto
50980.5 33078.5 lineto
51018 33266 lineto
51018 33416 lineto
50980.5 33603.5 lineto
50943 33716 lineto
50905.5 33791 lineto
50830.5 33903.4 lineto
50793 33940.9 lineto
stroke
newpath
52217.8 32741.1 moveto
52180.3 32778.6 lineto
52105.3 32891.1 lineto
52067.8 32966.1 lineto
52030.3 33078.5 lineto
51992.8 33266 lineto
51992.8 33416 lineto
52030.3 33603.5 lineto
52067.8 33716 lineto
52105.3 33791 lineto
52180.3 33903.4 lineto
52217.8 33940.9 lineto
stroke
newpath
52517.8 33566 moveto
52517.8 33041.1 lineto
stroke
newpath
52517.8 33491 moveto
52555.3 33528.5 lineto
52630.3 33566 lineto
52742.7 33566 lineto
52817.7 33528.5 lineto
52855.2 33453.5 lineto
52855.2 33041.1 lineto
stroke
newpath
53342.7 33041.1 moveto
53267.7 33078.5 lineto
53230.2 33116 lineto
53192.7 33191 lineto
53192.7 33416 lineto
53230.2 33491 lineto
53267.7 33528.5 lineto
53342.7 33566 lineto
53455.1 33566 lineto
53530.1 33528.5 lineto
53567.6 33491 lineto
53605.1 33416 lineto
53605.1 33191 lineto
53567.6 33116 lineto
53530.1 33078.5 lineto
53455.1 33041.1 lineto
53342.7 33041.1 lineto
stroke
newpath
53830.1 33566 moveto
54130.1 33566 lineto
stroke
newpath
53942.6 33828.5 moveto
53942.6 33153.5 lineto
53980.1 33078.5 lineto
54055.1 33041.1 lineto
54130.1 33041.1 lineto
stroke
newpath
54992.5 33566 moveto
54992.5 32778.6 lineto
stroke
newpath
54992.5 33528.5 moveto
55067.4 33566 lineto
55217.4 33566 lineto
55292.4 33528.5 lineto
55329.9 33491 lineto
55367.4 33416 lineto
55367.4 33191 lineto
55329.9 33116 lineto
55292.4 33078.5 lineto
55217.4 33041.1 lineto
55067.4 33041.1 lineto
54992.5 33078.5 lineto
stroke
newpath
55817.4 33041.1 moveto
55742.4 33078.5 lineto
55704.9 33153.5 lineto
55704.9 33828.5 lineto
stroke
newpath
56454.8 33041.1 moveto
56454.8 33453.5 lineto
56417.3 33528.5 lineto
56342.3 33566 lineto
56192.3 33566 lineto
56117.3 33528.5 lineto
stroke
newpath
56454.8 33078.5 moveto
56379.8 33041.1 lineto
56192.3 33041.1 lineto
56117.3 33078.5 lineto
56079.8 33153.5 lineto
56079.8 33228.5 lineto
56117.3 33303.5 lineto
56192.3 33341 lineto
56379.8 33341 lineto
56454.8 33378.5 lineto
stroke
newpath
56717.2 33566 moveto
57017.2 33566 lineto
stroke
newpath
56829.7 33828.5 moveto
56829.7 33153.5 lineto
56867.2 33078.5 lineto
56942.2 33041.1 lineto
57017.2 33041.1 lineto
stroke
newpath
57579.6 33078.5 moveto
57504.6 33041.1 lineto
57354.7 33041.1 lineto
57279.7 33078.5 lineto
57242.2 33153.5 lineto
57242.2 33453.5 lineto
57279.7 33528.5 lineto
57354.7 33566 lineto
57504.6 33566 lineto
57579.6 33528.5 lineto
57617.1 33453.5 lineto
57617.1 33378.5 lineto
57242.2 33303.5 lineto
stroke
newpath
58292 33041.1 moveto
58292 33828.5 lineto
stroke
newpath
58292 33078.5 moveto
58217.1 33041.1 lineto
58067.1 33041.1 lineto
57992.1 33078.5 lineto
57954.6 33116 lineto
57917.1 33191 lineto
57917.1 33416 lineto
57954.6 33491 lineto
57992.1 33528.5 lineto
58067.1 33566 lineto
58217.1 33566 lineto
58292 33528.5 lineto
stroke
newpath
58592 32741.1 moveto
58629.5 32778.6 lineto
58704.5 32891.1 lineto
58742 32966.1 lineto
58779.5 33078.5 lineto
58817 33266 lineto
58817 33416 lineto
58779.5 33603.5 lineto
58742 33716 lineto
58704.5 33791 lineto
58629.5 33903.4 lineto
58592 33940.9 lineto
stroke
78.7394 setlinewidth
31612.2 32137.4 393.7 cir0
236.22 setlinewidth
78.7406 setlinewidth
0 0 0 setrgbcolor
0 0 0 setrgbcolor
newpath
32945.2 32568.6 moveto
33432.6 32568.6 lineto
33170.2 32268.6 lineto
33282.7 32268.6 lineto
33357.7 32231.2 lineto
33395.1 32193.7 lineto
33432.6 32118.7 lineto
33432.6 31931.2 lineto
33395.1 31856.2 lineto
33357.7 31818.7 lineto
33282.7 31781.2 lineto
33057.7 31781.2 lineto
32982.7 31818.7 lineto
32945.2 31856.2 lineto
stroke
newpath
33770.1 31856.2 moveto
33807.6 31818.7 lineto
33770.1 31781.2 lineto
33732.6 31818.7 lineto
33770.1 31856.2 lineto
33770.1 31781.2 lineto
stroke
newpath
34107.6 32493.6 moveto
34145.1 32531.1 lineto
34220 32568.6 lineto
34407.5 32568.6 lineto
34482.5 32531.1 lineto
34520 32493.6 lineto
34557.5 32418.6 lineto
34557.5 32343.6 lineto
34520 32231.2 lineto
34070.1 31781.2 lineto
34557.5 31781.2 lineto
stroke
newpath
35044.9 32568.6 moveto
35119.9 32568.6 lineto
35194.9 32531.1 lineto
35232.4 32493.6 lineto
35269.9 32418.6 lineto
35307.4 32268.6 lineto
35307.4 32081.2 lineto
35269.9 31931.2 lineto
35232.4 31856.2 lineto
35194.9 31818.7 lineto
35119.9 31781.2 lineto
35044.9 31781.2 lineto
34970 31818.7 lineto
34932.5 31856.2 lineto
34895 31931.2 lineto
34857.5 32081.2 lineto
34857.5 32268.6 lineto
34895 32418.6 lineto
34932.5 32493.6 lineto
34970 32531.1 lineto
35044.9 32568.6 lineto
stroke
newpath
35794.8 32568.6 moveto
35869.8 32568.6 lineto
35944.8 32531.1 lineto
35982.3 32493.6 lineto
36019.8 32418.6 lineto
36057.3 32268.6 lineto
36057.3 32081.2 lineto
36019.8 31931.2 lineto
35982.3 31856.2 lineto
35944.8 31818.7 lineto
35869.8 31781.2 lineto
35794.8 31781.2 lineto
35719.9 31818.7 lineto
35682.4 31856.2 lineto
35644.9 31931.2 lineto
35607.4 32081.2 lineto
35607.4 32268.6 lineto
35644.9 32418.6 lineto
35682.4 32493.6 lineto
35719.9 32531.1 lineto
35794.8 32568.6 lineto
stroke
newpath
36394.8 31781.2 moveto
36394.8 32306.1 lineto
stroke
newpath
36394.8 32231.2 moveto
36432.3 32268.6 lineto
36507.3 32306.1 lineto
36619.7 32306.1 lineto
36694.7 32268.6 lineto
36732.2 32193.7 lineto
36732.2 31781.2 lineto
stroke
newpath
36732.2 32193.7 moveto
36769.7 32268.6 lineto
36844.7 32306.1 lineto
36957.2 32306.1 lineto
37032.2 32268.6 lineto
37069.7 32193.7 lineto
37069.7 31781.2 lineto
stroke
newpath
37444.6 31781.2 moveto
37444.6 32306.1 lineto
stroke
newpath
37444.6 32231.2 moveto
37482.1 32268.6 lineto
37557.1 32306.1 lineto
37669.6 32306.1 lineto
37744.6 32268.6 lineto
37782.1 32193.7 lineto
37782.1 31781.2 lineto
stroke
newpath
37782.1 32193.7 moveto
37819.6 32268.6 lineto
37894.6 32306.1 lineto
38007.1 32306.1 lineto
38082.1 32268.6 lineto
38119.6 32193.7 lineto
38119.6 31781.2 lineto
stroke
newpath
39656.9 32606.1 moveto
38982 31593.7 lineto
stroke
newpath
40669.2 32568.6 moveto
40744.2 32568.6 lineto
40819.2 32531.1 lineto
40856.7 32493.6 lineto
40894.2 32418.6 lineto
40931.7 32268.6 lineto
40931.7 32081.2 lineto
40894.2 31931.2 lineto
40856.7 31856.2 lineto
40819.2 31818.7 lineto
40744.2 31781.2 lineto
40669.2 31781.2 lineto
40594.3 31818.7 lineto
40556.8 31856.2 lineto
40519.3 31931.2 lineto
40481.8 32081.2 lineto
40481.8 32268.6 lineto
40519.3 32418.6 lineto
40556.8 32493.6 lineto
40594.3 32531.1 lineto
40669.2 32568.6 lineto
stroke
newpath
41269.2 31856.2 moveto
41306.7 31818.7 lineto
41269.2 31781.2 lineto
41231.7 31818.7 lineto
41269.2 31856.2 lineto
41269.2 31781.2 lineto
stroke
newpath
42056.6 31781.2 moveto
41606.6 31781.2 lineto
stroke
newpath
41831.6 31781.2 moveto
41831.6 32568.6 lineto
41756.6 32456.1 lineto
41681.6 32381.1 lineto
41606.6 32343.6 lineto
stroke
newpath
42356.5 32493.6 moveto
42394 32531.1 lineto
42469 32568.6 lineto
42656.5 32568.6 lineto
42731.5 32531.1 lineto
42769 32493.6 lineto
42806.5 32418.6 lineto
42806.5 32343.6 lineto
42769 32231.2 lineto
42319 31781.2 lineto
42806.5 31781.2 lineto
stroke
newpath
43481.4 32568.6 moveto
43331.4 32568.6 lineto
43256.4 32531.1 lineto
43218.9 32493.6 lineto
43143.9 32381.1 lineto
43106.4 32231.2 lineto
43106.4 31931.2 lineto
43143.9 31856.2 lineto
43181.4 31818.7 lineto
43256.4 31781.2 lineto
43406.4 31781.2 lineto
43481.4 31818.7 lineto
43518.9 31856.2 lineto
43556.4 31931.2 lineto
43556.4 32118.7 lineto
43518.9 32193.7 lineto
43481.4 32231.2 lineto
43406.4 32268.6 lineto
43256.4 32268.6 lineto
43181.4 32231.2 lineto
43143.9 32193.7 lineto
43106.4 32118.7 lineto
stroke
newpath
44043.8 32568.6 moveto
44118.8 32568.6 lineto
44193.8 32531.1 lineto
44231.3 32493.6 lineto
44268.8 32418.6 lineto
44306.3 32268.6 lineto
44306.3 32081.2 lineto
44268.8 31931.2 lineto
44231.3 31856.2 lineto
44193.8 31818.7 lineto
44118.8 31781.2 lineto
44043.8 31781.2 lineto
43968.8 31818.7 lineto
43931.3 31856.2 lineto
43893.8 31931.2 lineto
43856.3 32081.2 lineto
43856.3 32268.6 lineto
43893.8 32418.6 lineto
43931.3 32493.6 lineto
43968.8 32531.1 lineto
44043.8 32568.6 lineto
stroke
newpath
44606.3 32568.6 moveto
44606.3 32418.6 lineto
stroke
newpath
44906.2 32568.6 moveto
44906.2 32418.6 lineto
stroke
newpath
46068.6 31481.2 moveto
46031.1 31518.7 lineto
45956.1 31631.2 lineto
45918.6 31706.2 lineto
45881.1 31818.7 lineto
45843.6 32006.2 lineto
45843.6 32156.2 lineto
45881.1 32343.6 lineto
45918.6 32456.1 lineto
45956.1 32531.1 lineto
46031.1 32643.6 lineto
46068.6 32681.1 lineto
stroke
newpath
46706 32306.1 moveto
46706 31781.2 lineto
stroke
newpath
46518.5 32606.1 moveto
46331 32043.7 lineto
46818.5 32043.7 lineto
stroke
newpath
47718.4 31781.2 moveto
47718.4 32568.6 lineto
stroke
newpath
48055.8 31781.2 moveto
48055.8 32193.7 lineto
48018.3 32268.6 lineto
47943.3 32306.1 lineto
47830.8 32306.1 lineto
47755.9 32268.6 lineto
47718.4 32231.2 lineto
stroke
newpath
48543.3 31781.2 moveto
48468.3 31818.7 lineto
48430.8 31856.2 lineto
48393.3 31931.2 lineto
48393.3 32156.2 lineto
48430.8 32231.2 lineto
48468.3 32268.6 lineto
48543.3 32306.1 lineto
48655.7 32306.1 lineto
48730.7 32268.6 lineto
48768.2 32231.2 lineto
48805.7 32156.2 lineto
48805.7 31931.2 lineto
48768.2 31856.2 lineto
48730.7 31818.7 lineto
48655.7 31781.2 lineto
48543.3 31781.2 lineto
stroke
newpath
49255.7 31781.2 moveto
49180.7 31818.7 lineto
49143.2 31893.7 lineto
49143.2 32568.6 lineto
stroke
newpath
49855.6 31818.7 moveto
49780.6 31781.2 lineto
49630.6 31781.2 lineto
49555.6 31818.7 lineto
49518.1 31893.7 lineto
49518.1 32193.7 lineto
49555.6 32268.6 lineto
49630.6 32306.1 lineto
49780.6 32306.1 lineto
49855.6 32268.6 lineto
49893.1 32193.7 lineto
49893.1 32118.7 lineto
49518.1 32043.7 lineto
stroke
newpath
50193.1 31818.7 moveto
50268 31781.2 lineto
50418 31781.2 lineto
50493 31818.7 lineto
50530.5 31893.7 lineto
50530.5 31931.2 lineto
50493 32006.2 lineto
50418 32043.7 lineto
50305.5 32043.7 lineto
50230.6 32081.2 lineto
50193.1 32156.2 lineto
50193.1 32193.7 lineto
50230.6 32268.6 lineto
50305.5 32306.1 lineto
50418 32306.1 lineto
50493 32268.6 lineto
stroke
newpath
50793 31481.2 moveto
50830.5 31518.7 lineto
50905.5 31631.2 lineto
50943 31706.2 lineto
50980.5 31818.7 lineto
51018 32006.2 lineto
51018 32156.2 lineto
50980.5 32343.6 lineto
50943 32456.1 lineto
50905.5 32531.1 lineto
50830.5 32643.6 lineto
50793 32681.1 lineto
stroke
newpath
52217.8 31481.2 moveto
52180.3 31518.7 lineto
52105.3 31631.2 lineto
52067.8 31706.2 lineto
52030.3 31818.7 lineto
51992.8 32006.2 lineto
51992.8 32156.2 lineto
52030.3 32343.6 lineto
52067.8 32456.1 lineto
52105.3 32531.1 lineto
52180.3 32643.6 lineto
52217.8 32681.1 lineto
stroke
newpath
52517.8 32306.1 moveto
52517.8 31781.2 lineto
stroke
newpath
52517.8 32231.2 moveto
52555.3 32268.6 lineto
52630.3 32306.1 lineto
52742.7 32306.1 lineto
52817.7 32268.6 lineto
52855.2 32193.7 lineto
52855.2 31781.2 lineto
stroke
newpath
53342.7 31781.2 moveto
53267.7 31818.7 lineto
53230.2 31856.2 lineto
53192.7 31931.2 lineto
53192.7 32156.2 lineto
53230.2 32231.2 lineto
53267.7 32268.6 lineto
53342.7 32306.1 lineto
53455.1 32306.1 lineto
53530.1 32268.6 lineto
53567.6 32231.2 lineto
53605.1 32156.2 lineto
53605.1 31931.2 lineto
53567.6 31856.2 lineto
53530.1 31818.7 lineto
53455.1 31781.2 lineto
53342.7 31781.2 lineto
stroke
newpath
53830.1 32306.1 moveto
54130.1 32306.1 lineto
stroke
newpath
53942.6 32568.6 moveto
53942.6 31893.7 lineto
53980.1 31818.7 lineto
54055.1 31781.2 lineto
54130.1 31781.2 lineto
stroke
newpath
54992.5 32306.1 moveto
54992.5 31518.7 lineto
stroke
newpath
54992.5 32268.6 moveto
55067.4 32306.1 lineto
55217.4 32306.1 lineto
55292.4 32268.6 lineto
55329.9 32231.2 lineto
55367.4 32156.2 lineto
55367.4 31931.2 lineto
55329.9 31856.2 lineto
55292.4 31818.7 lineto
55217.4 31781.2 lineto
55067.4 31781.2 lineto
54992.5 31818.7 lineto
stroke
newpath
55817.4 31781.2 moveto
55742.4 31818.7 lineto
55704.9 31893.7 lineto
55704.9 32568.6 lineto
stroke
newpath
56454.8 31781.2 moveto
56454.8 32193.7 lineto
56417.3 32268.6 lineto
56342.3 32306.1 lineto
56192.3 32306.1 lineto
56117.3 32268.6 lineto
stroke
newpath
56454.8 31818.7 moveto
56379.8 31781.2 lineto
56192.3 31781.2 lineto
56117.3 31818.7 lineto
56079.8 31893.7 lineto
56079.8 31968.7 lineto
56117.3 32043.7 lineto
56192.3 32081.2 lineto
56379.8 32081.2 lineto
56454.8 32118.7 lineto
stroke
newpath
56717.2 32306.1 moveto
57017.2 32306.1 lineto
stroke
newpath
56829.7 32568.6 moveto
56829.7 31893.7 lineto
56867.2 31818.7 lineto
56942.2 31781.2 lineto
57017.2 31781.2 lineto
stroke
newpath
57579.6 31818.7 moveto
57504.6 31781.2 lineto
57354.7 31781.2 lineto
57279.7 31818.7 lineto
57242.2 31893.7 lineto
57242.2 32193.7 lineto
57279.7 32268.6 lineto
57354.7 32306.1 lineto
57504.6 32306.1 lineto
57579.6 32268.6 lineto
57617.1 32193.7 lineto
57617.1 32118.7 lineto
57242.2 32043.7 lineto
stroke
newpath
58292 31781.2 moveto
58292 32568.6 lineto
stroke
newpath
58292 31818.7 moveto
58217.1 31781.2 lineto
58067.1 31781.2 lineto
57992.1 31818.7 lineto
57954.6 31856.2 lineto
57917.1 31931.2 lineto
57917.1 32156.2 lineto
57954.6 32231.2 lineto
57992.1 32268.6 lineto
58067.1 32306.1 lineto
58217.1 32306.1 lineto
58292 32268.6 lineto
stroke
newpath
58592 31481.2 moveto
58629.5 31518.7 lineto
58704.5 31631.2 lineto
58742 31706.2 lineto
58779.5 31818.7 lineto
58817 32006.2 lineto
58817 32156.2 lineto
58779.5 32343.6 lineto
58742 32456.1 lineto
58704.5 32531.1 lineto
58629.5 32643.6 lineto
58592 32681.1 lineto
stroke
showpage
grestore
%%EOF
