%!PS-Adobe-3.0
%%Creator: PCBNEW
%%CreationDate: Thu Feb  3 21:13:18 2022
%%Title: ()
%%Pages: 1
%%PageOrder: Ascend
%%BoundingBox: 0 0 596 842
%%DocumentMedia: A4 595 842 0 () ()
%%Orientation: Landscape
%%EndComments
%%BeginProlog
/line { newpath moveto lineto stroke } bind def
/cir0 { newpath 0 360 arc stroke } bind def
/cir1 { newpath 0 360 arc gsave fill grestore stroke } bind def
/cir2 { newpath 0 360 arc gsave fill grestore stroke } bind def
/arc0 { newpath arc stroke } bind def
/arc1 { newpath 4 index 4 index moveto arc closepath gsave fill
    grestore stroke } bind def
/arc2 { newpath 4 index 4 index moveto arc closepath gsave fill
    grestore stroke } bind def
/poly0 { stroke } bind def
/poly1 { closepath gsave fill grestore stroke } bind def
/poly2 { closepath gsave fill grestore stroke } bind def
/rect0 { rectstroke } bind def
/rect1 { rectfill } bind def
/rect2 { rectfill } bind def
/linemode0 { 0 setlinecap 0 setlinejoin 0 setlinewidth } bind def
/linemode1 { 1 setlinecap 1 setlinejoin } bind def
/dashedline { [200] 100 setdash } bind def
/solidline { [] 0 setdash } bind def
/phantomshow { moveto
    /KicadFont findfont 0.000001 scalefont setfont
    show } bind def
/textshow { gsave
    findfont exch scalefont setfont concat 1 scale 0 0 moveto show
    } bind def
/reencodefont {
  findfont dup length dict begin
  { 1 index /FID ne
    { def }
    { pop pop } ifelse
  } forall
  /Encoding ISOLatin1Encoding def
  currentdict
  end } bind def
/KicadFont /Helvetica reencodefont definefont pop
/KicadFont-Bold /Helvetica-Bold reencodefont definefont pop
/KicadFont-Oblique /Helvetica-Oblique reencodefont definefont pop
/KicadFont-BoldOblique /Helvetica-BoldOblique reencodefont definefont pop
%%EndProlog
%%Page: 1 1
%%BeginPageSetup
gsave
0.0072 0.0072 scale
linemode1
82680 0 translate 90 rotate
236.22 setlinewidth
%%EndPageSetup
0 0 0 setrgbcolor
118.11 setlinewidth
newpath
84865 35976 moveto
84865 79776 lineto
stroke
0 0 0 setrgbcolor
newpath
84865 79776 moveto
32065 79776 lineto
stroke
0 0 0 setrgbcolor
newpath
32065 79776 moveto
32065 35976 lineto
stroke
0 0 0 setrgbcolor
newpath
32065 35976 moveto
84865 35976 lineto
stroke
236.22 setlinewidth
64.9606 setlinewidth
newpath
67578.4 61158.3 moveto
68228 60508.7 lineto
stroke
newpath
68228 61158.3 moveto
67578.4 60508.7 lineto
stroke
newpath
67578.4 60095.3 moveto
68228 59445.7 lineto
stroke
newpath
68228 60095.3 moveto
67578.4 59445.7 lineto
stroke
newpath
67578.4 59032.3 moveto
68228 58382.7 lineto
stroke
newpath
68228 59032.3 moveto
67578.4 58382.7 lineto
stroke
newpath
67578.4 57969.3 moveto
68228 57319.7 lineto
stroke
newpath
68228 57969.3 moveto
67578.4 57319.7 lineto
stroke
newpath
67578.4 56906.3 moveto
68228 56256.7 lineto
stroke
newpath
68228 56906.3 moveto
67578.4 56256.7 lineto
stroke
newpath
67578.4 55843.3 moveto
68228 55193.7 lineto
stroke
newpath
68228 55843.3 moveto
67578.4 55193.7 lineto
stroke
newpath
68523.3 61689.8 moveto
69172.9 61040.2 lineto
stroke
newpath
69172.9 61689.8 moveto
68523.3 61040.2 lineto
stroke
newpath
68523.3 59563.8 moveto
69172.9 58914.2 lineto
stroke
newpath
69172.9 59563.8 moveto
68523.3 58914.2 lineto
stroke
newpath
68523.3 57437.8 moveto
69172.9 56788.2 lineto
stroke
newpath
69172.9 57437.8 moveto
68523.3 56788.2 lineto
stroke
newpath
68523.3 55311.8 moveto
69172.9 54662.2 lineto
stroke
newpath
69172.9 55311.8 moveto
68523.3 54662.2 lineto
stroke
newpath
71535.1 61158.3 moveto
72184.7 60508.7 lineto
stroke
newpath
72184.7 61158.3 moveto
71535.1 60508.7 lineto
stroke
newpath
71535.1 60095.3 moveto
72184.7 59445.7 lineto
stroke
newpath
72184.7 60095.3 moveto
71535.1 59445.7 lineto
stroke
newpath
71535.1 59032.3 moveto
72184.7 58382.7 lineto
stroke
newpath
72184.7 59032.3 moveto
71535.1 58382.7 lineto
stroke
newpath
71535.1 57969.3 moveto
72184.7 57319.7 lineto
stroke
newpath
72184.7 57969.3 moveto
71535.1 57319.7 lineto
stroke
newpath
71535.1 56906.3 moveto
72184.7 56256.7 lineto
stroke
newpath
72184.7 56906.3 moveto
71535.1 56256.7 lineto
stroke
newpath
71535.1 55843.3 moveto
72184.7 55193.7 lineto
stroke
newpath
72184.7 55843.3 moveto
71535.1 55193.7 lineto
stroke
newpath
72480 61689.8 moveto
73129.6 61040.2 lineto
stroke
newpath
73129.6 61689.8 moveto
72480 61040.2 lineto
stroke
newpath
72480 59563.8 moveto
73129.6 58914.2 lineto
stroke
newpath
73129.6 59563.8 moveto
72480 58914.2 lineto
stroke
newpath
72480 57437.8 moveto
73129.6 56788.2 lineto
stroke
newpath
73129.6 57437.8 moveto
72480 56788.2 lineto
stroke
newpath
72480 55311.8 moveto
73129.6 54662.2 lineto
stroke
newpath
73129.6 55311.8 moveto
72480 54662.2 lineto
stroke
82.6772 setlinewidth
78119.7 64317.7 413.386 cir0
236.22 setlinewidth
newpath
77706.3 64022.5 moveto
78533.1 64022.5 lineto
stroke
newpath
77706.3 64613 moveto
78533.1 64613 lineto
stroke
78533.1 64317.7 295.276 270 450 arc0
77706.3 64317.7 295.276 90 270 arc0
82.6772 setlinewidth
78119.7 52034.3 413.386 cir0
236.22 setlinewidth
newpath
77706.3 51739 moveto
78533.1 51739 lineto
stroke
newpath
77706.3 52329.5 moveto
78533.1 52329.5 lineto
stroke
78533.1 52034.3 295.276 270 450 arc0
77706.3 52034.3 295.276 90 270 arc0
89.7638 setlinewidth
newpath
50688.6 74182.9 moveto
50688.6 73285.3 lineto
stroke
newpath
50239.8 73734.1 moveto
51137.4 73734.1 lineto
stroke
newpath
50688.6 71182.9 moveto
50688.6 70285.3 lineto
stroke
newpath
50239.8 70734.1 moveto
51137.4 70734.1 lineto
stroke
newpath
50688.6 68182.9 moveto
50688.6 67285.3 lineto
stroke
newpath
50239.8 67734.1 moveto
51137.4 67734.1 lineto
stroke
newpath
50688.6 65182.9 moveto
50688.6 64285.3 lineto
stroke
newpath
50239.8 64734.1 moveto
51137.4 64734.1 lineto
stroke
newpath
50688.6 53182.9 moveto
50688.6 52285.3 lineto
stroke
newpath
50239.8 52734.1 moveto
51137.4 52734.1 lineto
stroke
newpath
50688.6 50182.9 moveto
50688.6 49285.3 lineto
stroke
newpath
50239.8 49734.1 moveto
51137.4 49734.1 lineto
stroke
newpath
50688.6 47182.9 moveto
50688.6 46285.3 lineto
stroke
newpath
50239.8 46734.1 moveto
51137.4 46734.1 lineto
stroke
newpath
50688.6 44182.9 moveto
50688.6 43285.3 lineto
stroke
newpath
50239.8 43734.1 moveto
51137.4 43734.1 lineto
stroke
newpath
53688.6 72682.9 moveto
53688.6 71785.3 lineto
stroke
newpath
53239.8 72234.1 moveto
54137.4 72234.1 lineto
stroke
newpath
53688.6 69682.9 moveto
53688.6 68785.3 lineto
stroke
newpath
53239.8 69234.1 moveto
54137.4 69234.1 lineto
stroke
newpath
53688.6 66682.9 moveto
53688.6 65785.3 lineto
stroke
newpath
53239.8 66234.1 moveto
54137.4 66234.1 lineto
stroke
newpath
53688.6 63682.9 moveto
53688.6 62785.3 lineto
stroke
newpath
53239.8 63234.1 moveto
54137.4 63234.1 lineto
stroke
newpath
53688.6 51682.9 moveto
53688.6 50785.3 lineto
stroke
newpath
53239.8 51234.1 moveto
54137.4 51234.1 lineto
stroke
newpath
53688.6 48682.9 moveto
53688.6 47785.3 lineto
stroke
newpath
53239.8 48234.1 moveto
54137.4 48234.1 lineto
stroke
newpath
53688.6 45682.9 moveto
53688.6 44785.3 lineto
stroke
newpath
53239.8 45234.1 moveto
54137.4 45234.1 lineto
stroke
newpath
53688.6 42682.9 moveto
53688.6 41785.3 lineto
stroke
newpath
53239.8 42234.1 moveto
54137.4 42234.1 lineto
stroke
106.299 setlinewidth
newpath
72235.7 64296.2 moveto
72235.7 65047.9 lineto
71484.1 65047.9 lineto
71484.1 64296.2 lineto
72235.7 64296.2 lineto
poly0
236.22 setlinewidth
newpath
71003.6 64258.7 moveto
72716.2 64258.7 lineto
stroke
newpath
71003.6 65085.4 moveto
72716.2 65085.4 lineto
stroke
72716.2 64672.1 413.386 270 450 arc0
71003.6 64672.1 413.386 90 270 arc0
106.299 setlinewidth
newpath
72235.7 51304.1 moveto
72235.7 52055.8 lineto
71484.1 52055.8 lineto
71484.1 51304.1 lineto
72235.7 51304.1 lineto
poly0
236.22 setlinewidth
newpath
71003.6 51266.6 moveto
72716.2 51266.6 lineto
stroke
newpath
71003.6 52093.3 moveto
72716.2 52093.3 lineto
stroke
72716.2 51679.9 413.386 270 450 arc0
71003.6 51679.9 413.386 90 270 arc0
78.7406 setlinewidth
0 0 0 setrgbcolor
0 0 0 setrgbcolor
newpath
33020.2 34694.6 moveto
33020.2 35482 lineto
33207.7 35482 lineto
33320.2 35444.5 lineto
33395.1 35369.5 lineto
33432.6 35294.5 lineto
33470.1 35144.5 lineto
33470.1 35032.1 lineto
33432.6 34882.1 lineto
33395.1 34807.1 lineto
33320.2 34732.1 lineto
33207.7 34694.6 lineto
33020.2 34694.6 lineto
stroke
newpath
33807.6 34694.6 moveto
33807.6 35219.5 lineto
stroke
newpath
33807.6 35069.6 moveto
33845.1 35144.5 lineto
33882.6 35182 lineto
33957.6 35219.5 lineto
34032.6 35219.5 lineto
stroke
newpath
34295 34694.6 moveto
34295 35219.5 lineto
stroke
newpath
34295 35482 moveto
34257.5 35444.5 lineto
34295 35407 lineto
34332.5 35444.5 lineto
34295 35482 lineto
34295 35407 lineto
stroke
newpath
34782.5 34694.6 moveto
34707.5 34732.1 lineto
34670 34807.1 lineto
34670 35482 lineto
stroke
newpath
35194.9 34694.6 moveto
35119.9 34732.1 lineto
35082.4 34807.1 lineto
35082.4 35482 lineto
stroke
newpath
36094.8 34694.6 moveto
36094.8 35482 lineto
36357.3 34919.6 lineto
36619.7 35482 lineto
36619.7 34694.6 lineto
stroke
newpath
37332.2 34694.6 moveto
37332.2 35107 lineto
37294.7 35182 lineto
37219.7 35219.5 lineto
37069.7 35219.5 lineto
36994.7 35182 lineto
stroke
newpath
37332.2 34732.1 moveto
37257.2 34694.6 lineto
37069.7 34694.6 lineto
36994.7 34732.1 lineto
36957.2 34807.1 lineto
36957.2 34882.1 lineto
36994.7 34957.1 lineto
37069.7 34994.6 lineto
37257.2 34994.6 lineto
37332.2 35032.1 lineto
stroke
newpath
37707.1 35219.5 moveto
37707.1 34432.1 lineto
stroke
newpath
37707.1 35182 moveto
37782.1 35219.5 lineto
37932.1 35219.5 lineto
38007.1 35182 lineto
38044.6 35144.5 lineto
38082.1 35069.6 lineto
38082.1 34844.6 lineto
38044.6 34769.6 lineto
38007.1 34732.1 lineto
37932.1 34694.6 lineto
37782.1 34694.6 lineto
37707.1 34732.1 lineto
stroke
newpath
38419.5 34769.6 moveto
38457 34732.1 lineto
38419.5 34694.6 lineto
38382 34732.1 lineto
38419.5 34769.6 lineto
38419.5 34694.6 lineto
stroke
newpath
38419.5 35182 moveto
38457 35144.5 lineto
38419.5 35107 lineto
38382 35144.5 lineto
38419.5 35182 lineto
38419.5 35107 lineto
stroke
64.9606 setlinewidth
newpath
31356.3 33722.1 moveto
32005.9 33072.5 lineto
stroke
newpath
32005.9 33722.1 moveto
31356.3 33072.5 lineto
stroke
236.22 setlinewidth
78.7406 setlinewidth
0 0 0 setrgbcolor
0 0 0 setrgbcolor
newpath
33170.2 33828.5 moveto
33245.2 33828.5 lineto
33320.2 33791 lineto
33357.7 33753.5 lineto
33395.1 33678.5 lineto
33432.6 33528.5 lineto
33432.6 33341 lineto
33395.1 33191 lineto
33357.7 33116 lineto
33320.2 33078.5 lineto
33245.2 33041.1 lineto
33170.2 33041.1 lineto
33095.2 33078.5 lineto
33057.7 33116 lineto
33020.2 33191 lineto
32982.7 33341 lineto
32982.7 33528.5 lineto
33020.2 33678.5 lineto
33057.7 33753.5 lineto
33095.2 33791 lineto
33170.2 33828.5 lineto
stroke
newpath
33770.1 33116 moveto
33807.6 33078.5 lineto
33770.1 33041.1 lineto
33732.6 33078.5 lineto
33770.1 33116 lineto
33770.1 33041.1 lineto
stroke
newpath
34520 33828.5 moveto
34145.1 33828.5 lineto
34107.6 33453.5 lineto
34145.1 33491 lineto
34220 33528.5 lineto
34407.5 33528.5 lineto
34482.5 33491 lineto
34520 33453.5 lineto
34557.5 33378.5 lineto
34557.5 33191 lineto
34520 33116 lineto
34482.5 33078.5 lineto
34407.5 33041.1 lineto
34220 33041.1 lineto
34145.1 33078.5 lineto
34107.6 33116 lineto
stroke
newpath
35269.9 33828.5 moveto
34895 33828.5 lineto
34857.5 33453.5 lineto
34895 33491 lineto
34970 33528.5 lineto
35157.4 33528.5 lineto
35232.4 33491 lineto
35269.9 33453.5 lineto
35307.4 33378.5 lineto
35307.4 33191 lineto
35269.9 33116 lineto
35232.4 33078.5 lineto
35157.4 33041.1 lineto
34970 33041.1 lineto
34895 33078.5 lineto
34857.5 33116 lineto
stroke
newpath
35794.8 33828.5 moveto
35869.8 33828.5 lineto
35944.8 33791 lineto
35982.3 33753.5 lineto
36019.8 33678.5 lineto
36057.3 33528.5 lineto
36057.3 33341 lineto
36019.8 33191 lineto
35982.3 33116 lineto
35944.8 33078.5 lineto
35869.8 33041.1 lineto
35794.8 33041.1 lineto
35719.9 33078.5 lineto
35682.4 33116 lineto
35644.9 33191 lineto
35607.4 33341 lineto
35607.4 33528.5 lineto
35644.9 33678.5 lineto
35682.4 33753.5 lineto
35719.9 33791 lineto
35794.8 33828.5 lineto
stroke
newpath
36394.8 33041.1 moveto
36394.8 33566 lineto
stroke
newpath
36394.8 33491 moveto
36432.3 33528.5 lineto
36507.3 33566 lineto
36619.7 33566 lineto
36694.7 33528.5 lineto
36732.2 33453.5 lineto
36732.2 33041.1 lineto
stroke
newpath
36732.2 33453.5 moveto
36769.7 33528.5 lineto
36844.7 33566 lineto
36957.2 33566 lineto
37032.2 33528.5 lineto
37069.7 33453.5 lineto
37069.7 33041.1 lineto
stroke
newpath
37444.6 33041.1 moveto
37444.6 33566 lineto
stroke
newpath
37444.6 33491 moveto
37482.1 33528.5 lineto
37557.1 33566 lineto
37669.6 33566 lineto
37744.6 33528.5 lineto
37782.1 33453.5 lineto
37782.1 33041.1 lineto
stroke
newpath
37782.1 33453.5 moveto
37819.6 33528.5 lineto
37894.6 33566 lineto
38007.1 33566 lineto
38082.1 33528.5 lineto
38119.6 33453.5 lineto
38119.6 33041.1 lineto
stroke
newpath
39656.9 33865.9 moveto
38982 32853.6 lineto
stroke
newpath
40669.2 33828.5 moveto
40744.2 33828.5 lineto
40819.2 33791 lineto
40856.7 33753.5 lineto
40894.2 33678.5 lineto
40931.7 33528.5 lineto
40931.7 33341 lineto
40894.2 33191 lineto
40856.7 33116 lineto
40819.2 33078.5 lineto
40744.2 33041.1 lineto
40669.2 33041.1 lineto
40594.3 33078.5 lineto
40556.8 33116 lineto
40519.3 33191 lineto
40481.8 33341 lineto
40481.8 33528.5 lineto
40519.3 33678.5 lineto
40556.8 33753.5 lineto
40594.3 33791 lineto
40669.2 33828.5 lineto
stroke
newpath
41269.2 33116 moveto
41306.7 33078.5 lineto
41269.2 33041.1 lineto
41231.7 33078.5 lineto
41269.2 33116 lineto
41269.2 33041.1 lineto
stroke
newpath
41794.1 33828.5 moveto
41869.1 33828.5 lineto
41944.1 33791 lineto
41981.6 33753.5 lineto
42019.1 33678.5 lineto
42056.6 33528.5 lineto
42056.6 33341 lineto
42019.1 33191 lineto
41981.6 33116 lineto
41944.1 33078.5 lineto
41869.1 33041.1 lineto
41794.1 33041.1 lineto
41719.1 33078.5 lineto
41681.6 33116 lineto
41644.1 33191 lineto
41606.6 33341 lineto
41606.6 33528.5 lineto
41644.1 33678.5 lineto
41681.6 33753.5 lineto
41719.1 33791 lineto
41794.1 33828.5 lineto
stroke
newpath
42356.5 33753.5 moveto
42394 33791 lineto
42469 33828.5 lineto
42656.5 33828.5 lineto
42731.5 33791 lineto
42769 33753.5 lineto
42806.5 33678.5 lineto
42806.5 33603.5 lineto
42769 33491 lineto
42319 33041.1 lineto
42806.5 33041.1 lineto
stroke
newpath
43556.4 33041.1 moveto
43106.4 33041.1 lineto
stroke
newpath
43331.4 33041.1 moveto
43331.4 33828.5 lineto
43256.4 33716 lineto
43181.4 33641 lineto
43106.4 33603.5 lineto
stroke
newpath
43818.8 33828.5 moveto
44343.8 33828.5 lineto
44006.3 33041.1 lineto
stroke
newpath
44606.3 33828.5 moveto
44606.3 33678.5 lineto
stroke
newpath
44906.2 33828.5 moveto
44906.2 33678.5 lineto
stroke
newpath
46068.6 32741.1 moveto
46031.1 32778.6 lineto
45956.1 32891.1 lineto
45918.6 32966.1 lineto
45881.1 33078.5 lineto
45843.6 33266 lineto
45843.6 33416 lineto
45881.1 33603.5 lineto
45918.6 33716 lineto
45956.1 33791 lineto
46031.1 33903.4 lineto
46068.6 33940.9 lineto
stroke
newpath
46331 33753.5 moveto
46368.5 33791 lineto
46443.5 33828.5 lineto
46631 33828.5 lineto
46706 33791 lineto
46743.5 33753.5 lineto
46781 33678.5 lineto
46781 33603.5 lineto
46743.5 33491 lineto
46293.5 33041.1 lineto
46781 33041.1 lineto
stroke
newpath
47268.4 33828.5 moveto
47343.4 33828.5 lineto
47418.4 33791 lineto
47455.9 33753.5 lineto
47493.4 33678.5 lineto
47530.9 33528.5 lineto
47530.9 33341 lineto
47493.4 33191 lineto
47455.9 33116 lineto
47418.4 33078.5 lineto
47343.4 33041.1 lineto
47268.4 33041.1 lineto
47193.4 33078.5 lineto
47155.9 33116 lineto
47118.4 33191 lineto
47080.9 33341 lineto
47080.9 33528.5 lineto
47118.4 33678.5 lineto
47155.9 33753.5 lineto
47193.4 33791 lineto
47268.4 33828.5 lineto
stroke
newpath
48468.3 33041.1 moveto
48468.3 33828.5 lineto
stroke
newpath
48805.7 33041.1 moveto
48805.7 33453.5 lineto
48768.2 33528.5 lineto
48693.2 33566 lineto
48580.8 33566 lineto
48505.8 33528.5 lineto
48468.3 33491 lineto
stroke
newpath
49293.2 33041.1 moveto
49218.2 33078.5 lineto
49180.7 33116 lineto
49143.2 33191 lineto
49143.2 33416 lineto
49180.7 33491 lineto
49218.2 33528.5 lineto
49293.2 33566 lineto
49405.7 33566 lineto
49480.6 33528.5 lineto
49518.1 33491 lineto
49555.6 33416 lineto
49555.6 33191 lineto
49518.1 33116 lineto
49480.6 33078.5 lineto
49405.7 33041.1 lineto
49293.2 33041.1 lineto
stroke
newpath
50005.6 33041.1 moveto
49930.6 33078.5 lineto
49893.1 33153.5 lineto
49893.1 33828.5 lineto
stroke
newpath
50605.5 33078.5 moveto
50530.5 33041.1 lineto
50380.5 33041.1 lineto
50305.5 33078.5 lineto
50268 33153.5 lineto
50268 33453.5 lineto
50305.5 33528.5 lineto
50380.5 33566 lineto
50530.5 33566 lineto
50605.5 33528.5 lineto
50643 33453.5 lineto
50643 33378.5 lineto
50268 33303.5 lineto
stroke
newpath
50943 33078.5 moveto
51018 33041.1 lineto
51167.9 33041.1 lineto
51242.9 33078.5 lineto
51280.4 33153.5 lineto
51280.4 33191 lineto
51242.9 33266 lineto
51167.9 33303.5 lineto
51055.4 33303.5 lineto
50980.5 33341 lineto
50943 33416 lineto
50943 33453.5 lineto
50980.5 33528.5 lineto
51055.4 33566 lineto
51167.9 33566 lineto
51242.9 33528.5 lineto
stroke
newpath
51542.9 32741.1 moveto
51580.4 32778.6 lineto
51655.4 32891.1 lineto
51692.9 32966.1 lineto
51730.4 33078.5 lineto
51767.9 33266 lineto
51767.9 33416 lineto
51730.4 33603.5 lineto
51692.9 33716 lineto
51655.4 33791 lineto
51580.4 33903.4 lineto
51542.9 33940.9 lineto
stroke
78.7394 setlinewidth
31612.2 32275.2 393.7 cir0
236.22 setlinewidth
78.7406 setlinewidth
0 0 0 setrgbcolor
0 0 0 setrgbcolor
newpath
33170.2 32706.4 moveto
33245.2 32706.4 lineto
33320.2 32668.9 lineto
33357.7 32631.4 lineto
33395.1 32556.4 lineto
33432.6 32406.4 lineto
33432.6 32219 lineto
33395.1 32069 lineto
33357.7 31994 lineto
33320.2 31956.5 lineto
33245.2 31919 lineto
33170.2 31919 lineto
33095.2 31956.5 lineto
33057.7 31994 lineto
33020.2 32069 lineto
32982.7 32219 lineto
32982.7 32406.4 lineto
33020.2 32556.4 lineto
33057.7 32631.4 lineto
33095.2 32668.9 lineto
33170.2 32706.4 lineto
stroke
newpath
33770.1 31994 moveto
33807.6 31956.5 lineto
33770.1 31919 lineto
33732.6 31956.5 lineto
33770.1 31994 lineto
33770.1 31919 lineto
stroke
newpath
34070.1 32706.4 moveto
34595 32706.4 lineto
34257.5 31919 lineto
stroke
newpath
35044.9 32706.4 moveto
35119.9 32706.4 lineto
35194.9 32668.9 lineto
35232.4 32631.4 lineto
35269.9 32556.4 lineto
35307.4 32406.4 lineto
35307.4 32219 lineto
35269.9 32069 lineto
35232.4 31994 lineto
35194.9 31956.5 lineto
35119.9 31919 lineto
35044.9 31919 lineto
34970 31956.5 lineto
34932.5 31994 lineto
34895 32069 lineto
34857.5 32219 lineto
34857.5 32406.4 lineto
34895 32556.4 lineto
34932.5 32631.4 lineto
34970 32668.9 lineto
35044.9 32706.4 lineto
stroke
newpath
35794.8 32706.4 moveto
35869.8 32706.4 lineto
35944.8 32668.9 lineto
35982.3 32631.4 lineto
36019.8 32556.4 lineto
36057.3 32406.4 lineto
36057.3 32219 lineto
36019.8 32069 lineto
35982.3 31994 lineto
35944.8 31956.5 lineto
35869.8 31919 lineto
35794.8 31919 lineto
35719.9 31956.5 lineto
35682.4 31994 lineto
35644.9 32069 lineto
35607.4 32219 lineto
35607.4 32406.4 lineto
35644.9 32556.4 lineto
35682.4 32631.4 lineto
35719.9 32668.9 lineto
35794.8 32706.4 lineto
stroke
newpath
36394.8 31919 moveto
36394.8 32443.9 lineto
stroke
newpath
36394.8 32369 moveto
36432.3 32406.4 lineto
36507.3 32443.9 lineto
36619.7 32443.9 lineto
36694.7 32406.4 lineto
36732.2 32331.5 lineto
36732.2 31919 lineto
stroke
newpath
36732.2 32331.5 moveto
36769.7 32406.4 lineto
36844.7 32443.9 lineto
36957.2 32443.9 lineto
37032.2 32406.4 lineto
37069.7 32331.5 lineto
37069.7 31919 lineto
stroke
newpath
37444.6 31919 moveto
37444.6 32443.9 lineto
stroke
newpath
37444.6 32369 moveto
37482.1 32406.4 lineto
37557.1 32443.9 lineto
37669.6 32443.9 lineto
37744.6 32406.4 lineto
37782.1 32331.5 lineto
37782.1 31919 lineto
stroke
newpath
37782.1 32331.5 moveto
37819.6 32406.4 lineto
37894.6 32443.9 lineto
38007.1 32443.9 lineto
38082.1 32406.4 lineto
38119.6 32331.5 lineto
38119.6 31919 lineto
stroke
newpath
39656.9 32743.9 moveto
38982 31731.5 lineto
stroke
newpath
40669.2 32706.4 moveto
40744.2 32706.4 lineto
40819.2 32668.9 lineto
40856.7 32631.4 lineto
40894.2 32556.4 lineto
40931.7 32406.4 lineto
40931.7 32219 lineto
40894.2 32069 lineto
40856.7 31994 lineto
40819.2 31956.5 lineto
40744.2 31919 lineto
40669.2 31919 lineto
40594.3 31956.5 lineto
40556.8 31994 lineto
40519.3 32069 lineto
40481.8 32219 lineto
40481.8 32406.4 lineto
40519.3 32556.4 lineto
40556.8 32631.4 lineto
40594.3 32668.9 lineto
40669.2 32706.4 lineto
stroke
newpath
41269.2 31994 moveto
41306.7 31956.5 lineto
41269.2 31919 lineto
41231.7 31956.5 lineto
41269.2 31994 lineto
41269.2 31919 lineto
stroke
newpath
41794.1 32706.4 moveto
41869.1 32706.4 lineto
41944.1 32668.9 lineto
41981.6 32631.4 lineto
42019.1 32556.4 lineto
42056.6 32406.4 lineto
42056.6 32219 lineto
42019.1 32069 lineto
41981.6 31994 lineto
41944.1 31956.5 lineto
41869.1 31919 lineto
41794.1 31919 lineto
41719.1 31956.5 lineto
41681.6 31994 lineto
41644.1 32069 lineto
41606.6 32219 lineto
41606.6 32406.4 lineto
41644.1 32556.4 lineto
41681.6 32631.4 lineto
41719.1 32668.9 lineto
41794.1 32706.4 lineto
stroke
newpath
42356.5 32631.4 moveto
42394 32668.9 lineto
42469 32706.4 lineto
42656.5 32706.4 lineto
42731.5 32668.9 lineto
42769 32631.4 lineto
42806.5 32556.4 lineto
42806.5 32481.4 lineto
42769 32369 lineto
42319 31919 lineto
42806.5 31919 lineto
stroke
newpath
43068.9 32706.4 moveto
43593.9 32706.4 lineto
43256.4 31919 lineto
stroke
newpath
44231.3 32706.4 moveto
44081.3 32706.4 lineto
44006.3 32668.9 lineto
43968.8 32631.4 lineto
43893.8 32518.9 lineto
43856.3 32369 lineto
43856.3 32069 lineto
43893.8 31994 lineto
43931.3 31956.5 lineto
44006.3 31919 lineto
44156.3 31919 lineto
44231.3 31956.5 lineto
44268.8 31994 lineto
44306.3 32069 lineto
44306.3 32256.5 lineto
44268.8 32331.5 lineto
44231.3 32369 lineto
44156.3 32406.4 lineto
44006.3 32406.4 lineto
43931.3 32369 lineto
43893.8 32331.5 lineto
43856.3 32256.5 lineto
stroke
newpath
44606.3 32706.4 moveto
44606.3 32556.4 lineto
stroke
newpath
44906.2 32706.4 moveto
44906.2 32556.4 lineto
stroke
newpath
46068.6 31619 moveto
46031.1 31656.5 lineto
45956.1 31769 lineto
45918.6 31844 lineto
45881.1 31956.5 lineto
45843.6 32144 lineto
45843.6 32294 lineto
45881.1 32481.4 lineto
45918.6 32593.9 lineto
45956.1 32668.9 lineto
46031.1 32781.4 lineto
46068.6 32818.9 lineto
stroke
newpath
46518.5 32706.4 moveto
46593.5 32706.4 lineto
46668.5 32668.9 lineto
46706 32631.4 lineto
46743.5 32556.4 lineto
46781 32406.4 lineto
46781 32219 lineto
46743.5 32069 lineto
46706 31994 lineto
46668.5 31956.5 lineto
46593.5 31919 lineto
46518.5 31919 lineto
46443.5 31956.5 lineto
46406 31994 lineto
46368.5 32069 lineto
46331 32219 lineto
46331 32406.4 lineto
46368.5 32556.4 lineto
46406 32631.4 lineto
46443.5 32668.9 lineto
46518.5 32706.4 lineto
stroke
newpath
47718.4 31919 moveto
47718.4 32706.4 lineto
stroke
newpath
48055.8 31919 moveto
48055.8 32331.5 lineto
48018.3 32406.4 lineto
47943.3 32443.9 lineto
47830.8 32443.9 lineto
47755.9 32406.4 lineto
47718.4 32369 lineto
stroke
newpath
48543.3 31919 moveto
48468.3 31956.5 lineto
48430.8 31994 lineto
48393.3 32069 lineto
48393.3 32294 lineto
48430.8 32369 lineto
48468.3 32406.4 lineto
48543.3 32443.9 lineto
48655.7 32443.9 lineto
48730.7 32406.4 lineto
48768.2 32369 lineto
48805.7 32294 lineto
48805.7 32069 lineto
48768.2 31994 lineto
48730.7 31956.5 lineto
48655.7 31919 lineto
48543.3 31919 lineto
stroke
newpath
49255.7 31919 moveto
49180.7 31956.5 lineto
49143.2 32031.5 lineto
49143.2 32706.4 lineto
stroke
newpath
49855.6 31956.5 moveto
49780.6 31919 lineto
49630.6 31919 lineto
49555.6 31956.5 lineto
49518.1 32031.5 lineto
49518.1 32331.5 lineto
49555.6 32406.4 lineto
49630.6 32443.9 lineto
49780.6 32443.9 lineto
49855.6 32406.4 lineto
49893.1 32331.5 lineto
49893.1 32256.5 lineto
49518.1 32181.5 lineto
stroke
newpath
50193.1 31956.5 moveto
50268 31919 lineto
50418 31919 lineto
50493 31956.5 lineto
50530.5 32031.5 lineto
50530.5 32069 lineto
50493 32144 lineto
50418 32181.5 lineto
50305.5 32181.5 lineto
50230.6 32219 lineto
50193.1 32294 lineto
50193.1 32331.5 lineto
50230.6 32406.4 lineto
50305.5 32443.9 lineto
50418 32443.9 lineto
50493 32406.4 lineto
stroke
newpath
51467.9 32219 moveto
52067.8 32219 lineto
stroke
newpath
51767.9 31919 moveto
51767.9 32518.9 lineto
stroke
newpath
53005.2 32631.4 moveto
53042.7 32668.9 lineto
53117.7 32706.4 lineto
53305.2 32706.4 lineto
53380.2 32668.9 lineto
53417.7 32631.4 lineto
53455.1 32556.4 lineto
53455.1 32481.4 lineto
53417.7 32369 lineto
52967.7 31919 lineto
53455.1 31919 lineto
stroke
newpath
54355 31956.5 moveto
54430 31919 lineto
54580 31919 lineto
54655 31956.5 lineto
54692.5 32031.5 lineto
54692.5 32069 lineto
54655 32144 lineto
54580 32181.5 lineto
54467.5 32181.5 lineto
54392.5 32219 lineto
54355 32294 lineto
54355 32331.5 lineto
54392.5 32406.4 lineto
54467.5 32443.9 lineto
54580 32443.9 lineto
54655 32406.4 lineto
stroke
newpath
55142.4 31919 moveto
55067.4 31956.5 lineto
55030 32031.5 lineto
55030 32706.4 lineto
stroke
newpath
55554.9 31919 moveto
55479.9 31956.5 lineto
55442.4 31994 lineto
55404.9 32069 lineto
55404.9 32294 lineto
55442.4 32369 lineto
55479.9 32406.4 lineto
55554.9 32443.9 lineto
55667.4 32443.9 lineto
55742.4 32406.4 lineto
55779.9 32369 lineto
55817.4 32294 lineto
55817.4 32069 lineto
55779.9 31994 lineto
55742.4 31956.5 lineto
55667.4 31919 lineto
55554.9 31919 lineto
stroke
newpath
56042.3 32443.9 moveto
56342.3 32443.9 lineto
stroke
newpath
56154.8 32706.4 moveto
56154.8 32031.5 lineto
56192.3 31956.5 lineto
56267.3 31919 lineto
56342.3 31919 lineto
stroke
newpath
56567.3 31956.5 moveto
56642.3 31919 lineto
56792.2 31919 lineto
56867.2 31956.5 lineto
56904.7 32031.5 lineto
56904.7 32069 lineto
56867.2 32144 lineto
56792.2 32181.5 lineto
56679.7 32181.5 lineto
56604.8 32219 lineto
56567.3 32294 lineto
56567.3 32331.5 lineto
56604.8 32406.4 lineto
56679.7 32443.9 lineto
56792.2 32443.9 lineto
56867.2 32406.4 lineto
stroke
newpath
57167.2 31619 moveto
57204.7 31656.5 lineto
57279.7 31769 lineto
57317.2 31844 lineto
57354.7 31956.5 lineto
57392.2 32144 lineto
57392.2 32294 lineto
57354.7 32481.4 lineto
57317.2 32593.9 lineto
57279.7 32668.9 lineto
57204.7 32781.4 lineto
57167.2 32818.9 lineto
stroke
78.7394 setlinewidth
newpath
31612.2 31409.1 moveto
31612.2 30621.7 lineto
stroke
newpath
31218.5 31015.4 moveto
32005.9 31015.4 lineto
stroke
236.22 setlinewidth
78.7406 setlinewidth
0 0 0 setrgbcolor
0 0 0 setrgbcolor
newpath
33170.2 31446.6 moveto
33245.2 31446.6 lineto
33320.2 31409.1 lineto
33357.7 31371.6 lineto
33395.1 31296.6 lineto
33432.6 31146.6 lineto
33432.6 30959.1 lineto
33395.1 30809.1 lineto
33357.7 30734.2 lineto
33320.2 30696.7 lineto
33245.2 30659.2 lineto
33170.2 30659.2 lineto
33095.2 30696.7 lineto
33057.7 30734.2 lineto
33020.2 30809.1 lineto
32982.7 30959.1 lineto
32982.7 31146.6 lineto
33020.2 31296.6 lineto
33057.7 31371.6 lineto
33095.2 31409.1 lineto
33170.2 31446.6 lineto
stroke
newpath
33770.1 30734.2 moveto
33807.6 30696.7 lineto
33770.1 30659.2 lineto
33732.6 30696.7 lineto
33770.1 30734.2 lineto
33770.1 30659.2 lineto
stroke
newpath
34070.1 31446.6 moveto
34595 31446.6 lineto
34257.5 30659.2 lineto
stroke
newpath
35232.4 31446.6 moveto
35082.4 31446.6 lineto
35007.4 31409.1 lineto
34970 31371.6 lineto
34895 31259.1 lineto
34857.5 31109.1 lineto
34857.5 30809.1 lineto
34895 30734.2 lineto
34932.5 30696.7 lineto
35007.4 30659.2 lineto
35157.4 30659.2 lineto
35232.4 30696.7 lineto
35269.9 30734.2 lineto
35307.4 30809.1 lineto
35307.4 30996.6 lineto
35269.9 31071.6 lineto
35232.4 31109.1 lineto
35157.4 31146.6 lineto
35007.4 31146.6 lineto
34932.5 31109.1 lineto
34895 31071.6 lineto
34857.5 30996.6 lineto
stroke
newpath
35794.8 31446.6 moveto
35869.8 31446.6 lineto
35944.8 31409.1 lineto
35982.3 31371.6 lineto
36019.8 31296.6 lineto
36057.3 31146.6 lineto
36057.3 30959.1 lineto
36019.8 30809.1 lineto
35982.3 30734.2 lineto
35944.8 30696.7 lineto
35869.8 30659.2 lineto
35794.8 30659.2 lineto
35719.9 30696.7 lineto
35682.4 30734.2 lineto
35644.9 30809.1 lineto
35607.4 30959.1 lineto
35607.4 31146.6 lineto
35644.9 31296.6 lineto
35682.4 31371.6 lineto
35719.9 31409.1 lineto
35794.8 31446.6 lineto
stroke
newpath
36394.8 30659.2 moveto
36394.8 31184.1 lineto
stroke
newpath
36394.8 31109.1 moveto
36432.3 31146.6 lineto
36507.3 31184.1 lineto
36619.7 31184.1 lineto
36694.7 31146.6 lineto
36732.2 31071.6 lineto
36732.2 30659.2 lineto
stroke
newpath
36732.2 31071.6 moveto
36769.7 31146.6 lineto
36844.7 31184.1 lineto
36957.2 31184.1 lineto
37032.2 31146.6 lineto
37069.7 31071.6 lineto
37069.7 30659.2 lineto
stroke
newpath
37444.6 30659.2 moveto
37444.6 31184.1 lineto
stroke
newpath
37444.6 31109.1 moveto
37482.1 31146.6 lineto
37557.1 31184.1 lineto
37669.6 31184.1 lineto
37744.6 31146.6 lineto
37782.1 31071.6 lineto
37782.1 30659.2 lineto
stroke
newpath
37782.1 31071.6 moveto
37819.6 31146.6 lineto
37894.6 31184.1 lineto
38007.1 31184.1 lineto
38082.1 31146.6 lineto
38119.6 31071.6 lineto
38119.6 30659.2 lineto
stroke
newpath
39656.9 31484.1 moveto
38982 30471.7 lineto
stroke
newpath
40669.2 31446.6 moveto
40744.2 31446.6 lineto
40819.2 31409.1 lineto
40856.7 31371.6 lineto
40894.2 31296.6 lineto
40931.7 31146.6 lineto
40931.7 30959.1 lineto
40894.2 30809.1 lineto
40856.7 30734.2 lineto
40819.2 30696.7 lineto
40744.2 30659.2 lineto
40669.2 30659.2 lineto
40594.3 30696.7 lineto
40556.8 30734.2 lineto
40519.3 30809.1 lineto
40481.8 30959.1 lineto
40481.8 31146.6 lineto
40519.3 31296.6 lineto
40556.8 31371.6 lineto
40594.3 31409.1 lineto
40669.2 31446.6 lineto
stroke
newpath
41269.2 30734.2 moveto
41306.7 30696.7 lineto
41269.2 30659.2 lineto
41231.7 30696.7 lineto
41269.2 30734.2 lineto
41269.2 30659.2 lineto
stroke
newpath
41794.1 31446.6 moveto
41869.1 31446.6 lineto
41944.1 31409.1 lineto
41981.6 31371.6 lineto
42019.1 31296.6 lineto
42056.6 31146.6 lineto
42056.6 30959.1 lineto
42019.1 30809.1 lineto
41981.6 30734.2 lineto
41944.1 30696.7 lineto
41869.1 30659.2 lineto
41794.1 30659.2 lineto
41719.1 30696.7 lineto
41681.6 30734.2 lineto
41644.1 30809.1 lineto
41606.6 30959.1 lineto
41606.6 31146.6 lineto
41644.1 31296.6 lineto
41681.6 31371.6 lineto
41719.1 31409.1 lineto
41794.1 31446.6 lineto
stroke
newpath
42356.5 31371.6 moveto
42394 31409.1 lineto
42469 31446.6 lineto
42656.5 31446.6 lineto
42731.5 31409.1 lineto
42769 31371.6 lineto
42806.5 31296.6 lineto
42806.5 31221.6 lineto
42769 31109.1 lineto
42319 30659.2 lineto
42806.5 30659.2 lineto
stroke
newpath
43181.4 30659.2 moveto
43331.4 30659.2 lineto
43406.4 30696.7 lineto
43443.9 30734.2 lineto
43518.9 30846.6 lineto
43556.4 30996.6 lineto
43556.4 31296.6 lineto
43518.9 31371.6 lineto
43481.4 31409.1 lineto
43406.4 31446.6 lineto
43256.4 31446.6 lineto
43181.4 31409.1 lineto
43143.9 31371.6 lineto
43106.4 31296.6 lineto
43106.4 31109.1 lineto
43143.9 31034.1 lineto
43181.4 30996.6 lineto
43256.4 30959.1 lineto
43406.4 30959.1 lineto
43481.4 30996.6 lineto
43518.9 31034.1 lineto
43556.4 31109.1 lineto
stroke
newpath
43931.3 30659.2 moveto
44081.3 30659.2 lineto
44156.3 30696.7 lineto
44193.8 30734.2 lineto
44268.8 30846.6 lineto
44306.3 30996.6 lineto
44306.3 31296.6 lineto
44268.8 31371.6 lineto
44231.3 31409.1 lineto
44156.3 31446.6 lineto
44006.3 31446.6 lineto
43931.3 31409.1 lineto
43893.8 31371.6 lineto
43856.3 31296.6 lineto
43856.3 31109.1 lineto
43893.8 31034.1 lineto
43931.3 30996.6 lineto
44006.3 30959.1 lineto
44156.3 30959.1 lineto
44231.3 30996.6 lineto
44268.8 31034.1 lineto
44306.3 31109.1 lineto
stroke
newpath
44606.3 31446.6 moveto
44606.3 31296.6 lineto
stroke
newpath
44906.2 31446.6 moveto
44906.2 31296.6 lineto
stroke
newpath
46068.6 30359.2 moveto
46031.1 30396.7 lineto
45956.1 30509.2 lineto
45918.6 30584.2 lineto
45881.1 30696.7 lineto
45843.6 30884.1 lineto
45843.6 31034.1 lineto
45881.1 31221.6 lineto
45918.6 31334.1 lineto
45956.1 31409.1 lineto
46031.1 31521.6 lineto
46068.6 31559.1 lineto
stroke
newpath
46781 30659.2 moveto
46331 30659.2 lineto
stroke
newpath
46556 30659.2 moveto
46556 31446.6 lineto
46481 31334.1 lineto
46406 31259.1 lineto
46331 31221.6 lineto
stroke
newpath
47455.9 31446.6 moveto
47305.9 31446.6 lineto
47230.9 31409.1 lineto
47193.4 31371.6 lineto
47118.4 31259.1 lineto
47080.9 31109.1 lineto
47080.9 30809.1 lineto
47118.4 30734.2 lineto
47155.9 30696.7 lineto
47230.9 30659.2 lineto
47380.9 30659.2 lineto
47455.9 30696.7 lineto
47493.4 30734.2 lineto
47530.9 30809.1 lineto
47530.9 30996.6 lineto
47493.4 31071.6 lineto
47455.9 31109.1 lineto
47380.9 31146.6 lineto
47230.9 31146.6 lineto
47155.9 31109.1 lineto
47118.4 31071.6 lineto
47080.9 30996.6 lineto
stroke
newpath
48468.3 30659.2 moveto
48468.3 31446.6 lineto
stroke
newpath
48805.7 30659.2 moveto
48805.7 31071.6 lineto
48768.2 31146.6 lineto
48693.2 31184.1 lineto
48580.8 31184.1 lineto
48505.8 31146.6 lineto
48468.3 31109.1 lineto
stroke
newpath
49293.2 30659.2 moveto
49218.2 30696.7 lineto
49180.7 30734.2 lineto
49143.2 30809.1 lineto
49143.2 31034.1 lineto
49180.7 31109.1 lineto
49218.2 31146.6 lineto
49293.2 31184.1 lineto
49405.7 31184.1 lineto
49480.6 31146.6 lineto
49518.1 31109.1 lineto
49555.6 31034.1 lineto
49555.6 30809.1 lineto
49518.1 30734.2 lineto
49480.6 30696.7 lineto
49405.7 30659.2 lineto
49293.2 30659.2 lineto
stroke
newpath
50005.6 30659.2 moveto
49930.6 30696.7 lineto
49893.1 30771.6 lineto
49893.1 31446.6 lineto
stroke
newpath
50605.5 30696.7 moveto
50530.5 30659.2 lineto
50380.5 30659.2 lineto
50305.5 30696.7 lineto
50268 30771.6 lineto
50268 31071.6 lineto
50305.5 31146.6 lineto
50380.5 31184.1 lineto
50530.5 31184.1 lineto
50605.5 31146.6 lineto
50643 31071.6 lineto
50643 30996.6 lineto
50268 30921.6 lineto
stroke
newpath
50943 30696.7 moveto
51018 30659.2 lineto
51167.9 30659.2 lineto
51242.9 30696.7 lineto
51280.4 30771.6 lineto
51280.4 30809.1 lineto
51242.9 30884.1 lineto
51167.9 30921.6 lineto
51055.4 30921.6 lineto
50980.5 30959.1 lineto
50943 31034.1 lineto
50943 31071.6 lineto
50980.5 31146.6 lineto
51055.4 31184.1 lineto
51167.9 31184.1 lineto
51242.9 31146.6 lineto
stroke
newpath
51542.9 30359.2 moveto
51580.4 30396.7 lineto
51655.4 30509.2 lineto
51692.9 30584.2 lineto
51730.4 30696.7 lineto
51767.9 30884.1 lineto
51767.9 31034.1 lineto
51730.4 31221.6 lineto
51692.9 31334.1 lineto
51655.4 31409.1 lineto
51580.4 31521.6 lineto
51542.9 31559.1 lineto
stroke
78.7394 setlinewidth
newpath
31890.6 29477.1 moveto
31890.6 30033.9 lineto
31333.9 30033.9 lineto
31333.9 29477.1 lineto
31890.6 29477.1 lineto
poly0
236.22 setlinewidth
78.7406 setlinewidth
0 0 0 setrgbcolor
0 0 0 setrgbcolor
newpath
33170.2 30186.7 moveto
33245.2 30186.7 lineto
33320.2 30149.2 lineto
33357.7 30111.7 lineto
33395.1 30036.7 lineto
33432.6 29886.8 lineto
33432.6 29699.3 lineto
33395.1 29549.3 lineto
33357.7 29474.3 lineto
33320.2 29436.8 lineto
33245.2 29399.3 lineto
33170.2 29399.3 lineto
33095.2 29436.8 lineto
33057.7 29474.3 lineto
33020.2 29549.3 lineto
32982.7 29699.3 lineto
32982.7 29886.8 lineto
33020.2 30036.7 lineto
33057.7 30111.7 lineto
33095.2 30149.2 lineto
33170.2 30186.7 lineto
stroke
newpath
33770.1 29474.3 moveto
33807.6 29436.8 lineto
33770.1 29399.3 lineto
33732.6 29436.8 lineto
33770.1 29474.3 lineto
33770.1 29399.3 lineto
stroke
newpath
34182.5 29399.3 moveto
34332.5 29399.3 lineto
34407.5 29436.8 lineto
34445 29474.3 lineto
34520 29586.8 lineto
34557.5 29736.8 lineto
34557.5 30036.7 lineto
34520 30111.7 lineto
34482.5 30149.2 lineto
34407.5 30186.7 lineto
34257.5 30186.7 lineto
34182.5 30149.2 lineto
34145.1 30111.7 lineto
34107.6 30036.7 lineto
34107.6 29849.3 lineto
34145.1 29774.3 lineto
34182.5 29736.8 lineto
34257.5 29699.3 lineto
34407.5 29699.3 lineto
34482.5 29736.8 lineto
34520 29774.3 lineto
34557.5 29849.3 lineto
stroke
newpath
35044.9 30186.7 moveto
35119.9 30186.7 lineto
35194.9 30149.2 lineto
35232.4 30111.7 lineto
35269.9 30036.7 lineto
35307.4 29886.8 lineto
35307.4 29699.3 lineto
35269.9 29549.3 lineto
35232.4 29474.3 lineto
35194.9 29436.8 lineto
35119.9 29399.3 lineto
35044.9 29399.3 lineto
34970 29436.8 lineto
34932.5 29474.3 lineto
34895 29549.3 lineto
34857.5 29699.3 lineto
34857.5 29886.8 lineto
34895 30036.7 lineto
34932.5 30111.7 lineto
34970 30149.2 lineto
35044.9 30186.7 lineto
stroke
newpath
35794.8 30186.7 moveto
35869.8 30186.7 lineto
35944.8 30149.2 lineto
35982.3 30111.7 lineto
36019.8 30036.7 lineto
36057.3 29886.8 lineto
36057.3 29699.3 lineto
36019.8 29549.3 lineto
35982.3 29474.3 lineto
35944.8 29436.8 lineto
35869.8 29399.3 lineto
35794.8 29399.3 lineto
35719.9 29436.8 lineto
35682.4 29474.3 lineto
35644.9 29549.3 lineto
35607.4 29699.3 lineto
35607.4 29886.8 lineto
35644.9 30036.7 lineto
35682.4 30111.7 lineto
35719.9 30149.2 lineto
35794.8 30186.7 lineto
stroke
newpath
36394.8 29399.3 moveto
36394.8 29924.3 lineto
stroke
newpath
36394.8 29849.3 moveto
36432.3 29886.8 lineto
36507.3 29924.3 lineto
36619.7 29924.3 lineto
36694.7 29886.8 lineto
36732.2 29811.8 lineto
36732.2 29399.3 lineto
stroke
newpath
36732.2 29811.8 moveto
36769.7 29886.8 lineto
36844.7 29924.3 lineto
36957.2 29924.3 lineto
37032.2 29886.8 lineto
37069.7 29811.8 lineto
37069.7 29399.3 lineto
stroke
newpath
37444.6 29399.3 moveto
37444.6 29924.3 lineto
stroke
newpath
37444.6 29849.3 moveto
37482.1 29886.8 lineto
37557.1 29924.3 lineto
37669.6 29924.3 lineto
37744.6 29886.8 lineto
37782.1 29811.8 lineto
37782.1 29399.3 lineto
stroke
newpath
37782.1 29811.8 moveto
37819.6 29886.8 lineto
37894.6 29924.3 lineto
38007.1 29924.3 lineto
38082.1 29886.8 lineto
38119.6 29811.8 lineto
38119.6 29399.3 lineto
stroke
newpath
39656.9 30224.2 moveto
38982 29211.8 lineto
stroke
newpath
40669.2 30186.7 moveto
40744.2 30186.7 lineto
40819.2 30149.2 lineto
40856.7 30111.7 lineto
40894.2 30036.7 lineto
40931.7 29886.8 lineto
40931.7 29699.3 lineto
40894.2 29549.3 lineto
40856.7 29474.3 lineto
40819.2 29436.8 lineto
40744.2 29399.3 lineto
40669.2 29399.3 lineto
40594.3 29436.8 lineto
40556.8 29474.3 lineto
40519.3 29549.3 lineto
40481.8 29699.3 lineto
40481.8 29886.8 lineto
40519.3 30036.7 lineto
40556.8 30111.7 lineto
40594.3 30149.2 lineto
40669.2 30186.7 lineto
stroke
newpath
41269.2 29474.3 moveto
41306.7 29436.8 lineto
41269.2 29399.3 lineto
41231.7 29436.8 lineto
41269.2 29474.3 lineto
41269.2 29399.3 lineto
stroke
newpath
41794.1 30186.7 moveto
41869.1 30186.7 lineto
41944.1 30149.2 lineto
41981.6 30111.7 lineto
42019.1 30036.7 lineto
42056.6 29886.8 lineto
42056.6 29699.3 lineto
42019.1 29549.3 lineto
41981.6 29474.3 lineto
41944.1 29436.8 lineto
41869.1 29399.3 lineto
41794.1 29399.3 lineto
41719.1 29436.8 lineto
41681.6 29474.3 lineto
41644.1 29549.3 lineto
41606.6 29699.3 lineto
41606.6 29886.8 lineto
41644.1 30036.7 lineto
41681.6 30111.7 lineto
41719.1 30149.2 lineto
41794.1 30186.7 lineto
stroke
newpath
42319 30186.7 moveto
42806.5 30186.7 lineto
42544 29886.8 lineto
42656.5 29886.8 lineto
42731.5 29849.3 lineto
42769 29811.8 lineto
42806.5 29736.8 lineto
42806.5 29549.3 lineto
42769 29474.3 lineto
42731.5 29436.8 lineto
42656.5 29399.3 lineto
42431.5 29399.3 lineto
42356.5 29436.8 lineto
42319 29474.3 lineto
stroke
newpath
43518.9 30186.7 moveto
43143.9 30186.7 lineto
43106.4 29811.8 lineto
43143.9 29849.3 lineto
43218.9 29886.8 lineto
43406.4 29886.8 lineto
43481.4 29849.3 lineto
43518.9 29811.8 lineto
43556.4 29736.8 lineto
43556.4 29549.3 lineto
43518.9 29474.3 lineto
43481.4 29436.8 lineto
43406.4 29399.3 lineto
43218.9 29399.3 lineto
43143.9 29436.8 lineto
43106.4 29474.3 lineto
stroke
newpath
44231.3 29924.3 moveto
44231.3 29399.3 lineto
stroke
newpath
44043.8 30224.2 moveto
43856.3 29661.8 lineto
44343.8 29661.8 lineto
stroke
newpath
44606.3 30186.7 moveto
44606.3 30036.7 lineto
stroke
newpath
44906.2 30186.7 moveto
44906.2 30036.7 lineto
stroke
newpath
46068.6 29099.4 moveto
46031.1 29136.9 lineto
45956.1 29249.3 lineto
45918.6 29324.3 lineto
45881.1 29436.8 lineto
45843.6 29624.3 lineto
45843.6 29774.3 lineto
45881.1 29961.8 lineto
45918.6 30074.2 lineto
45956.1 30149.2 lineto
46031.1 30261.7 lineto
46068.6 30299.2 lineto
stroke
newpath
46518.5 30186.7 moveto
46593.5 30186.7 lineto
46668.5 30149.2 lineto
46706 30111.7 lineto
46743.5 30036.7 lineto
46781 29886.8 lineto
46781 29699.3 lineto
46743.5 29549.3 lineto
46706 29474.3 lineto
46668.5 29436.8 lineto
46593.5 29399.3 lineto
46518.5 29399.3 lineto
46443.5 29436.8 lineto
46406 29474.3 lineto
46368.5 29549.3 lineto
46331 29699.3 lineto
46331 29886.8 lineto
46368.5 30036.7 lineto
46406 30111.7 lineto
46443.5 30149.2 lineto
46518.5 30186.7 lineto
stroke
newpath
47718.4 29399.3 moveto
47718.4 30186.7 lineto
stroke
newpath
48055.8 29399.3 moveto
48055.8 29811.8 lineto
48018.3 29886.8 lineto
47943.3 29924.3 lineto
47830.8 29924.3 lineto
47755.9 29886.8 lineto
47718.4 29849.3 lineto
stroke
newpath
48543.3 29399.3 moveto
48468.3 29436.8 lineto
48430.8 29474.3 lineto
48393.3 29549.3 lineto
48393.3 29774.3 lineto
48430.8 29849.3 lineto
48468.3 29886.8 lineto
48543.3 29924.3 lineto
48655.7 29924.3 lineto
48730.7 29886.8 lineto
48768.2 29849.3 lineto
48805.7 29774.3 lineto
48805.7 29549.3 lineto
48768.2 29474.3 lineto
48730.7 29436.8 lineto
48655.7 29399.3 lineto
48543.3 29399.3 lineto
stroke
newpath
49255.7 29399.3 moveto
49180.7 29436.8 lineto
49143.2 29511.8 lineto
49143.2 30186.7 lineto
stroke
newpath
49855.6 29436.8 moveto
49780.6 29399.3 lineto
49630.6 29399.3 lineto
49555.6 29436.8 lineto
49518.1 29511.8 lineto
49518.1 29811.8 lineto
49555.6 29886.8 lineto
49630.6 29924.3 lineto
49780.6 29924.3 lineto
49855.6 29886.8 lineto
49893.1 29811.8 lineto
49893.1 29736.8 lineto
49518.1 29661.8 lineto
stroke
newpath
50193.1 29436.8 moveto
50268 29399.3 lineto
50418 29399.3 lineto
50493 29436.8 lineto
50530.5 29511.8 lineto
50530.5 29549.3 lineto
50493 29624.3 lineto
50418 29661.8 lineto
50305.5 29661.8 lineto
50230.6 29699.3 lineto
50193.1 29774.3 lineto
50193.1 29811.8 lineto
50230.6 29886.8 lineto
50305.5 29924.3 lineto
50418 29924.3 lineto
50493 29886.8 lineto
stroke
newpath
51467.9 29699.3 moveto
52067.8 29699.3 lineto
stroke
newpath
51767.9 29399.3 moveto
51767.9 29999.2 lineto
stroke
newpath
53005.2 30111.7 moveto
53042.7 30149.2 lineto
53117.7 30186.7 lineto
53305.2 30186.7 lineto
53380.2 30149.2 lineto
53417.7 30111.7 lineto
53455.1 30036.7 lineto
53455.1 29961.8 lineto
53417.7 29849.3 lineto
52967.7 29399.3 lineto
53455.1 29399.3 lineto
stroke
newpath
54355 29436.8 moveto
54430 29399.3 lineto
54580 29399.3 lineto
54655 29436.8 lineto
54692.5 29511.8 lineto
54692.5 29549.3 lineto
54655 29624.3 lineto
54580 29661.8 lineto
54467.5 29661.8 lineto
54392.5 29699.3 lineto
54355 29774.3 lineto
54355 29811.8 lineto
54392.5 29886.8 lineto
54467.5 29924.3 lineto
54580 29924.3 lineto
54655 29886.8 lineto
stroke
newpath
55142.4 29399.3 moveto
55067.4 29436.8 lineto
55030 29511.8 lineto
55030 30186.7 lineto
stroke
newpath
55554.9 29399.3 moveto
55479.9 29436.8 lineto
55442.4 29474.3 lineto
55404.9 29549.3 lineto
55404.9 29774.3 lineto
55442.4 29849.3 lineto
55479.9 29886.8 lineto
55554.9 29924.3 lineto
55667.4 29924.3 lineto
55742.4 29886.8 lineto
55779.9 29849.3 lineto
55817.4 29774.3 lineto
55817.4 29549.3 lineto
55779.9 29474.3 lineto
55742.4 29436.8 lineto
55667.4 29399.3 lineto
55554.9 29399.3 lineto
stroke
newpath
56042.3 29924.3 moveto
56342.3 29924.3 lineto
stroke
newpath
56154.8 30186.7 moveto
56154.8 29511.8 lineto
56192.3 29436.8 lineto
56267.3 29399.3 lineto
56342.3 29399.3 lineto
stroke
newpath
56567.3 29436.8 moveto
56642.3 29399.3 lineto
56792.2 29399.3 lineto
56867.2 29436.8 lineto
56904.7 29511.8 lineto
56904.7 29549.3 lineto
56867.2 29624.3 lineto
56792.2 29661.8 lineto
56679.7 29661.8 lineto
56604.8 29699.3 lineto
56567.3 29774.3 lineto
56567.3 29811.8 lineto
56604.8 29886.8 lineto
56679.7 29924.3 lineto
56792.2 29924.3 lineto
56867.2 29886.8 lineto
stroke
newpath
57167.2 29099.4 moveto
57204.7 29136.9 lineto
57279.7 29249.3 lineto
57317.2 29324.3 lineto
57354.7 29436.8 lineto
57392.2 29624.3 lineto
57392.2 29774.3 lineto
57354.7 29961.8 lineto
57317.2 30074.2 lineto
57279.7 30149.2 lineto
57204.7 30261.7 lineto
57167.2 30299.2 lineto
stroke
showpage
grestore
%%EOF
